%!PS-Adobe-3.0
%%DocumentNeededResources: font Helvetica
%%+ font Helvetica-Bold
%%+ font Helvetica-Oblique
%%+ font Helvetica-BoldOblique
%%+ font Symbol
%%DocumentMedia: a4 595 841 0 () ()
%%Title: R Graphics Output
%%Creator: R Software
%%Pages: (atend)
%%Orientation: Landscape
%%BoundingBox: 18 18 577 824
%%EndComments
%%BeginProlog
/bp  { gs 595.00 0 translate 90 rotate gs } def
% begin .ps.prolog
/gs  { gsave } def
/gr  { grestore } def
/ep  { showpage gr gr } def
/m   { moveto } def
/l  { rlineto } def
/np  { newpath } def
/cp  { closepath } def
/f   { fill } def
/o   { stroke } def
/c   { newpath 0 360 arc } def
/r   { 4 2 roll moveto 1 copy 3 -1 roll exch 0 exch rlineto 0 rlineto -1 mul 0 exch rlineto closepath } def
/p1  { stroke } def
/p2  { gsave bg fill grestore newpath } def
/p3  { gsave bg fill grestore stroke } def
/p6  { gsave bg eofill grestore newpath } def
/p7  { gsave bg eofill grestore stroke } def
/t   { 5 -2 roll moveto gsave rotate
       1 index stringwidth pop
       mul neg 0 rmoveto show grestore } def
/ta  { 4 -2 roll moveto gsave rotate show } def
/tb  { 2 -1 roll 0 rmoveto show } def
/cl  { grestore gsave newpath 3 index 3 index moveto 1 index
       4 -1 roll lineto  exch 1 index lineto lineto
       closepath clip newpath } def
/rgb { setrgbcolor } def
/s   { scalefont setfont } def
% end   .ps.prolog
% begin encoding
/WinAnsiEncoding [
 /.notdef /.notdef /.notdef /.notdef /.notdef /.notdef /.notdef /.notdef
 /.notdef /.notdef /.notdef /.notdef /.notdef /.notdef /.notdef /.notdef
 /.notdef /.notdef /.notdef /.notdef /.notdef /.notdef /.notdef /.notdef
 /.notdef /.notdef /.notdef /.notdef /.notdef /.notdef /.notdef /.notdef
 /space /exclam /quotedbl /numbersign /dollar /percent /ampersand /quoteright
 /parenleft /parenright /asterisk /plus /comma /minus /period /slash
 /zero /one /two /three /four /five /six /seven
 /eight /nine /colon /semicolon /less /equal /greater /question
 /at /A /B /C /D /E /F /G
 /H /I /J /K /L /M /N /O
 /P /Q /R /S /T /U /V /W
 /X /Y /Z /bracketleft /backslash /bracketright /asciicircum /underscore
 /grave /a /b /c /d /e /f /g
 /h /i /j /k /l /m /n /o
 /p /q /r /s /t /u /v /w
 /x /y /z /braceleft /bar /braceright /asciitilde /.notdef
 /Euro /.notdef /quotesinglbase /florin /quotedblbase /ellipsis /dagger /daggerdbl
 /circumflex /perthousand /Scaron /guilsinglleft /OE /.notdef /Zcaron /.notdef
 /.notdef /quoteleft /quoteright /quotedblleft /quotedblright /bullet /endash /emdash
 /tilde /trademark /scaron /guilsinglright /oe /.notdef /zcaron /Ydieresis
 /space /exclamdown /cent /sterling /currency /yen /brokenbar /section
 /dieresis /copyright /ordfeminine /guillemotleft /logicalnot /hyphen /registered /macron
 /degree /plusminus /twosuperior /threesuperior /acute /mu /paragraph /periodcentered
 /cedilla /onesuperior /ordmasculine /guillemotright /onequarter /onehalf /threequarters /questiondown
 /Agrave /Aacute /Acircumflex /Atilde /Adieresis /Aring /AE /Ccedilla
 /Egrave /Eacute /Ecircumflex /Edieresis /Igrave /Iacute /Icircumflex /Idieresis
 /Eth /Ntilde /Ograve /Oacute /Ocircumflex /Otilde /Odieresis /multiply
 /Oslash /Ugrave /Uacute /Ucircumflex /Udieresis /Yacute /Thorn /germandbls
 /agrave /aacute /acircumflex /atilde /adieresis /aring /ae /ccedilla
 /egrave /eacute /ecircumflex /edieresis /igrave /iacute /icircumflex /idieresis
 /eth /ntilde /ograve /oacute /ocircumflex /otilde /odieresis /divide
 /oslash /ugrave /uacute /ucircumflex /udieresis /yacute /thorn /ydieresis
]
 def
% end encoding
%%IncludeResource: font Helvetica
/Helvetica findfont
dup length dict begin
  {1 index /FID ne {def} {pop pop} ifelse} forall
  /Encoding WinAnsiEncoding def
  currentdict
  end
/Font1 exch definefont pop
%%IncludeResource: font Helvetica-Bold
/Helvetica-Bold findfont
dup length dict begin
  {1 index /FID ne {def} {pop pop} ifelse} forall
  /Encoding WinAnsiEncoding def
  currentdict
  end
/Font2 exch definefont pop
%%IncludeResource: font Helvetica-Oblique
/Helvetica-Oblique findfont
dup length dict begin
  {1 index /FID ne {def} {pop pop} ifelse} forall
  /Encoding WinAnsiEncoding def
  currentdict
  end
/Font3 exch definefont pop
%%IncludeResource: font Helvetica-BoldOblique
/Helvetica-BoldOblique findfont
dup length dict begin
  {1 index /FID ne {def} {pop pop} ifelse} forall
  /Encoding WinAnsiEncoding def
  currentdict
  end
/Font4 exch definefont pop
%%IncludeResource: font Symbol
/Symbol findfont
dup length dict begin
  {1 index /FID ne {def} {pop pop} ifelse} forall
  currentdict
  end
/Font5 exch definefont pop
%%EndProlog
%%Page: 1 1
bp
77.04 91.44 793.65 518.24 cl
18.00 18.00 823.89 577.28 cl
0 setgray
0.75 setlinewidth
[] 0 setdash
1 setlinecap
1 setlinejoin
10.00 setmiterlimit
np
77.04 91.44 m
657.28 0 l
o
np
77.04 91.44 m
0 -7.20 l
o
np
186.59 91.44 m
0 -7.20 l
o
np
296.13 91.44 m
0 -7.20 l
o
np
405.68 91.44 m
0 -7.20 l
o
np
515.23 91.44 m
0 -7.20 l
o
np
624.77 91.44 m
0 -7.20 l
o
np
734.32 91.44 m
0 -7.20 l
o
/Font1 findfont 12 s
77.04 65.52 (0) .5 0 t
186.59 65.52 (20) .5 0 t
296.13 65.52 (40) .5 0 t
405.68 65.52 (60) .5 0 t
515.23 65.52 (80) .5 0 t
624.77 65.52 (100) .5 0 t
734.32 65.52 (120) .5 0 t
np
77.04 107.25 m
0 395.18 l
o
np
77.04 107.25 m
-7.20 0 l
o
np
77.04 186.28 m
-7.20 0 l
o
np
77.04 265.32 m
-7.20 0 l
o
np
77.04 344.36 m
-7.20 0 l
o
np
77.04 423.39 m
-7.20 0 l
o
np
77.04 502.43 m
-7.20 0 l
o
59.76 107.25 (0.0) .5 90 t
59.76 186.28 (0.2) .5 90 t
59.76 265.32 (0.4) .5 90 t
59.76 344.36 (0.6) .5 90 t
59.76 423.39 (0.8) .5 90 t
59.76 502.43 (1.0) .5 90 t
np
77.04 91.44 m
716.61 0 l
0 426.80 l
-716.61 0 l
0 -426.80 l
o
18.00 18.00 823.89 577.28 cl
/Font2 findfont 14 s
0 setgray
318.06 542.73 (Cur) 0 ta
0.140 (v) tb
-0.280 (a de sobre) tb
-0.210 (vida \(Kaplan-Meier\)) tb gr
/Font1 findfont 12 s
435.34 36.72 (Meses apos Diagnostico) .5 0 t
30.96 231.13 (Probabilidade de Sobre) 90 ta
-0.360 (vida) tb gr
77.04 91.44 793.65 518.24 cl
0 setgray
2.25 setlinewidth
[] 0 setdash
1 setlinecap
1 setlinejoin
10.00 setmiterlimit
np
77.04 502.43 m
2.19 0 l
0 -3.84 l
1.10 0 l
0 -3.84 l
0.54 0 l
0 -3.83 l
2.74 0 l
0 -3.84 l
3.84 0 l
0 -3.87 l
1.64 0 l
0 -3.92 l
0.55 0 l
0 -3.92 l
3.83 0 l
0 -3.91 l
2.74 0 l
0 -3.96 l
0.55 0 l
0 -4.00 l
3.83 0 l
0 -4.01 l
2.74 0 l
0 -4.00 l
0.55 0 l
0 -4.00 l
0.55 0 l
0 -4.01 l
1.09 0 l
0 -4.00 l
0.55 0 l
0 -4.00 l
2.19 0 l
0 -4.00 l
3.29 0 l
0 -4.01 l
1.09 0 l
0 -4.00 l
2.19 0 l
0 -4.00 l
0.55 0 l
0 -4.01 l
0.55 0 l
0 -4.00 l
1.09 0 l
0 -4.00 l
1.10 0 l
0 -4.00 l
3.29 0 l
0 -4.01 l
3.83 0 l
0 -4.00 l
1.10 0 l
0 -4.00 l
2.19 0 l
0 -4.06 l
1.64 0 l
0 -8.12 l
2.74 0 l
0 -4.06 l
3.29 0 l
0 -4.06 l
1.64 0 l
0 -4.06 l
6.02 0 l
0 -4.06 l
3.29 0 l
0 -4.06 l
2.74 0 l
0 -4.05 l
8.76 0 l
0 -4.06 l
0.55 0 l
0 -4.06 l
0.55 0 l
0 -4.06 l
14.24 0 l
0 -4.13 l
1.09 0 l
0 -4.13 l
1.65 0 l
0 -4.13 l
1.64 0 l
0 -4.13 l
9.86 0 l
0 -4.13 l
16.43 0 l
0 -4.13 l
3.84 0 l
0 -8.26 l
1.64 0 l
0 -4.12 l
20.81 0 l
0 -4.13 l
7.67 0 l
0 -4.13 l
23.01 0 l
0 -4.13 l
35.60 0 l
297.23 292.97 lineto
4.93 0 l
0 -4.22 l
51.49 0 l
0 -4.78 l
92.56 0 l
0 -5.89 l
47.11 0 l
0 -7.43 l
272.77 0 l
0 0 l
o
0.75 setlinewidth
[] 0 setdash
np
83.08 487.08 m
7.64 0 l
o
np
86.90 483.26 m
0 7.64 l
o
np
84.72 483.21 m
7.64 0 l
o
np
88.54 479.39 m
0 7.63 l
o
np
91.84 471.46 m
7.64 0 l
o
np
95.66 467.64 m
0 7.64 l
o
np
157.02 346.74 m
7.64 0 l
o
np
160.84 342.92 m
0 7.64 l
o
np
276.98 297.19 m
7.63 0 l
o
np
280.80 293.37 m
0 7.64 l
o
np
320.25 288.75 m
7.64 0 l
o
np
324.07 284.93 m
0 7.63 l
o
np
327.37 288.75 m
7.64 0 l
o
np
331.19 284.93 m
0 7.63 l
o
np
333.39 288.75 m
7.64 0 l
o
np
337.21 284.93 m
0 7.63 l
o
np
337.78 288.75 m
7.63 0 l
o
np
341.59 284.93 m
0 7.63 l
o
np
350.92 283.97 m
7.64 0 l
o
np
354.74 280.15 m
0 7.64 l
o
np
352.02 283.97 m
7.63 0 l
o
np
355.84 280.15 m
0 7.64 l
o
np
369.55 283.97 m
7.63 0 l
o
np
373.36 280.15 m
0 7.64 l
o
np
399.67 283.97 m
7.64 0 l
o
np
403.49 280.15 m
0 7.64 l
o
np
408.43 283.97 m
7.64 0 l
o
np
412.25 280.15 m
0 7.64 l
o
np
423.77 283.97 m
7.64 0 l
o
np
427.59 280.15 m
0 7.64 l
o
np
436.37 283.97 m
7.64 0 l
o
np
440.19 280.15 m
0 7.64 l
o
np
445.13 278.08 m
7.64 0 l
o
np
448.95 274.26 m
0 7.64 l
o
np
446.23 278.08 m
7.63 0 l
o
np
450.05 274.26 m
0 7.64 l
o
np
462.11 278.08 m
7.64 0 l
o
np
465.93 274.26 m
0 7.64 l
o
np
464.85 278.08 m
7.64 0 l
o
np
468.67 274.26 m
0 7.64 l
o
np
474.16 278.08 m
7.64 0 l
o
np
477.98 274.26 m
0 7.64 l
o
np
485.66 278.08 m
7.64 0 l
o
np
489.48 274.26 m
0 7.64 l
o
np
494.43 270.65 m
7.63 0 l
o
np
498.25 266.83 m
0 7.64 l
o
np
531.67 270.65 m
7.64 0 l
o
np
535.49 266.83 m
0 7.64 l
o
np
533.86 270.65 m
7.64 0 l
o
np
537.68 266.83 m
0 7.64 l
o
np
542.63 270.65 m
7.64 0 l
o
np
546.45 266.83 m
0 7.64 l
o
np
544.27 270.65 m
7.64 0 l
o
np
548.09 266.83 m
0 7.64 l
o
np
557.42 270.65 m
7.63 0 l
o
np
561.24 266.83 m
0 7.64 l
o
np
567.82 270.65 m
7.64 0 l
o
np
571.64 266.83 m
0 7.64 l
o
np
586.45 270.65 m
7.63 0 l
o
np
590.27 266.83 m
0 7.64 l
o
np
590.28 270.65 m
7.64 0 l
o
np
594.10 266.83 m
0 7.64 l
o
np
597.40 270.65 m
7.64 0 l
o
np
601.22 266.83 m
0 7.64 l
o
np
599.05 270.65 m
7.63 0 l
o
np
602.86 266.83 m
0 7.64 l
o
np
626.43 270.65 m
7.64 0 l
o
np
630.25 266.83 m
0 7.64 l
o
np
652.72 270.65 m
7.64 0 l
o
np
656.54 266.83 m
0 7.64 l
o
np
666.96 270.65 m
7.64 0 l
o
np
670.78 266.83 m
0 7.64 l
o
np
703.11 270.65 m
7.64 0 l
o
np
706.93 266.83 m
0 7.64 l
o
np
704.76 270.65 m
7.63 0 l
o
np
708.58 266.83 m
0 7.64 l
o
np
708.59 270.65 m
7.64 0 l
o
np
712.41 266.83 m
0 7.64 l
o
np
712.43 270.65 m
7.63 0 l
o
np
716.24 266.83 m
0 7.64 l
o
np
712.97 270.65 m
7.64 0 l
o
np
716.79 266.83 m
0 7.64 l
o
np
714.62 270.65 m
7.63 0 l
o
np
718.44 266.83 m
0 7.64 l
o
np
717.36 270.65 m
7.63 0 l
o
np
721.17 266.83 m
0 7.64 l
o
np
762.27 270.65 m
7.64 0 l
o
np
766.09 266.83 m
0 7.64 l
o
1 0 0 rgb
2.25 setlinewidth
[ 6.75 11.25] 0 setdash
np
77.04 502.43 m
2.19 0 l
0 0 l
0 0 l
0 -11.29 l
9.86 0 l
0 0 l
0 0 l
0 -11.64 l
11.50 0 l
0 0 l
0 0 l
0 -12.00 l
10.96 0 l
0 0 l
0 0 l
0 -12.01 l
3.83 0 l
0 0 l
0 0 l
0 -12.01 l
9.86 0 l
0 0 l
0 0 l
0 -12.01 l
3.29 0 l
0 0 l
0 0 l
0 -12.01 l
9.31 0 l
0 0 l
0 0 l
0 -12.01 l
6.02 0 l
0 0 l
0 0 l
0 -12.00 l
14.79 0 l
0 0 l
0 0 l
0 -12.01 l
15.34 0 l
0 0 l
0 0 l
0 -12.56 l
1.09 0 l
0 0 l
0 0 l
0 -12.55 l
13.15 0 l
0 0 l
0 0 l
0 -12.55 l
73.40 0 l
0 0 l
0 0 l
0 -12.56 l
35.60 0 l
0 0 l
0 0 l
0 -13.29 l
196.09 0 l
0 0 l
0 0 l
0 -17.72 l
288.65 0 l
0 0 l
0 0 l
0 0 l
o
0.75 setlinewidth
[] 0 setdash
np
84.72 491.14 m
7.64 0 l
o
np
88.54 487.32 m
0 7.64 l
o
np
91.84 479.50 m
7.64 0 l
o
np
95.66 475.69 m
0 7.63 l
o
np
157.02 383.44 m
7.64 0 l
o
np
160.84 379.62 m
0 7.64 l
o
np
276.98 333.22 m
7.63 0 l
o
np
280.80 329.40 m
0 7.64 l
o
np
439.65 319.93 m
7.64 0 l
o
np
443.47 316.11 m
0 7.64 l
o
np
462.11 319.93 m
7.64 0 l
o
np
465.93 316.11 m
0 7.64 l
o
np
477.45 319.93 m
7.64 0 l
o
np
481.27 316.11 m
0 7.64 l
o
np
480.73 319.93 m
7.64 0 l
o
np
484.55 316.11 m
0 7.64 l
o
np
549.20 302.21 m
7.64 0 l
o
np
553.02 298.39 m
0 7.63 l
o
np
560.16 302.21 m
7.63 0 l
o
np
563.97 298.39 m
0 7.63 l
o
np
602.33 302.21 m
7.64 0 l
o
np
606.15 298.39 m
0 7.63 l
o
np
642.32 302.21 m
7.63 0 l
o
np
646.13 298.39 m
0 7.63 l
o
np
668.06 302.21 m
7.64 0 l
o
np
671.88 298.39 m
0 7.63 l
o
np
720.64 302.21 m
7.64 0 l
o
np
724.46 298.39 m
0 7.63 l
o
np
724.48 302.21 m
7.63 0 l
o
np
728.29 298.39 m
0 7.63 l
o
np
728.31 302.21 m
7.64 0 l
o
np
732.13 298.39 m
0 7.63 l
o
np
729.95 302.21 m
7.64 0 l
o
np
733.77 298.39 m
0 7.63 l
o
np
733.24 302.21 m
7.64 0 l
o
np
737.06 298.39 m
0 7.63 l
o
np
778.15 302.21 m
7.64 0 l
o
np
781.97 298.39 m
0 7.63 l
o
0 0.8039 0 rgb
2.25 setlinewidth
[ 0.00 9.00] 0 setdash
np
77.04 502.43 m
3.83 0 l
0 0 l
0 0 l
0 -15.20 l
2.74 0 l
0 0 l
0 0 l
0 -15.20 l
9.86 0 l
0 0 l
0 0 l
0 -15.20 l
2.74 0 l
0 0 l
0 0 l
0 -15.20 l
30.13 0 l
0 0 l
0 0 l
0 -15.92 l
6.57 0 l
0 0 l
0 0 l
0 -16.76 l
77.23 0 l
0 0 l
0 0 l
0 -16.76 l
28.48 0 l
0 0 l
0 0 l
0 -16.77 l
63.54 0 l
0 0 l
0 0 l
0 -16.76 l
51.49 0 l
0 0 l
0 0 l
0 -19.34 l
369.17 0 l
0 0 l
0 0 l
0 0 l
o
0.75 setlinewidth
[] 0 setdash
np
336.13 358.66 m
7.64 0 l
o
np
339.95 354.85 m
0 7.63 l
o
np
349.28 358.66 m
7.64 0 l
o
np
353.10 354.85 m
0 7.63 l
o
np
415.55 339.32 m
7.64 0 l
o
np
419.37 335.51 m
0 7.63 l
o
np
445.13 339.32 m
7.64 0 l
o
np
448.95 335.51 m
0 7.63 l
o
np
452.25 339.32 m
7.64 0 l
o
np
456.07 335.51 m
0 7.63 l
o
np
501.00 339.32 m
7.64 0 l
o
np
504.82 335.51 m
0 7.63 l
o
np
510.31 339.32 m
7.64 0 l
o
np
514.13 335.51 m
0 7.63 l
o
np
547.01 339.32 m
7.64 0 l
o
np
550.83 335.51 m
0 7.63 l
o
np
557.97 339.32 m
7.63 0 l
o
np
561.78 335.51 m
0 7.63 l
o
np
583.16 339.32 m
7.64 0 l
o
np
586.98 335.51 m
0 7.63 l
o
np
605.62 339.32 m
7.63 0 l
o
np
609.44 335.51 m
0 7.63 l
o
np
612.74 339.32 m
7.64 0 l
o
np
616.56 335.51 m
0 7.63 l
o
np
682.30 339.32 m
7.64 0 l
o
np
686.12 335.51 m
0 7.63 l
o
np
719.00 339.32 m
7.64 0 l
o
np
722.82 335.51 m
0 7.63 l
o
2.25 setlinewidth
[ 0.00 9.00 6.75 9.00] 0 setdash
np
77.04 502.43 m
3.83 0 l
0 0 l
0 0 l
0 -56.46 l
2.74 0 l
0 0 l
0 0 l
0 -56.45 l
49.30 0 l
0 0 l
0 0 l
0 -56.45 l
77.23 0 l
0 0 l
0 0 l
0 -56.46 l
28.48 0 l
0 0 l
0 0 l
0 -56.45 l
63.54 0 l
0 0 l
0 0 l
0 -56.46 l
51.49 0 l
0 0 l
0 0 l
0 -56.45 l
o
np
77.04 502.43 m
16.43 0 l
0 0 l
0 0 l
0 -20.80 l
2.74 0 l
0 0 l
0 0 l
0 -20.80 l
30.13 0 l
0 0 l
0 0 l
0 -22.10 l
596.48 0 l
0 0 l
0 0 l
0 0 l
o
0.75 setlinewidth
[] 0 setdash
339.95 438.73 2.70 c p1
353.10 438.73 2.70 c p1
419.37 438.73 2.70 c p1
448.95 438.73 2.70 c p1
456.07 438.73 2.70 c p1
504.82 438.73 2.70 c p1
514.13 438.73 2.70 c p1
550.83 438.73 2.70 c p1
561.78 438.73 2.70 c p1
586.98 438.73 2.70 c p1
609.44 438.73 2.70 c p1
616.56 438.73 2.70 c p1
686.12 438.73 2.70 c p1
722.82 438.73 2.70 c p1
0 0 1 rgb
2.25 setlinewidth
[ 13.50 9.00] 0 setdash
np
77.04 502.43 m
12.60 0 l
0 0 l
0 0 l
0 -32.93 l
14.24 0 l
0 0 l
0 0 l
0 -32.94 l
12.05 0 l
0 0 l
0 0 l
0 -32.93 l
20.27 0 l
0 0 l
0 0 l
0 -32.93 l
13.69 0 l
0 0 l
0 0 l
0 -32.93 l
28.48 0 l
0 0 l
0 0 l
0 -32.93 l
30.13 0 l
0 0 l
0 0 l
0 -65.87 l
237.71 0 l
0 0 l
0 0 l
0 -43.90 l
286.47 0 l
0 0 l
0 0 l
0 0 l
o
0.75 setlinewidth
[] 0 setdash
np
366.81 238.97 m
7.63 0 l
o
np
370.62 235.16 m
0 7.63 l
o
np
490.05 195.07 m
7.63 0 l
o
np
493.86 191.25 m
0 7.63 l
o
np
728.86 195.07 m
7.63 0 l
o
np
732.68 191.25 m
0 7.63 l
o
0 setgray
np
87.88 208.74 m
35.74 0 l
o
1 0 0 rgb
0.75 setlinewidth
[ 2.25 3.75] 0 setdash
np
87.88 190.86 m
35.74 0 l
o
0 0.8039 0 rgb
0.75 setlinewidth
[ 0.00 3.00] 0 setdash
np
87.88 172.98 m
35.74 0 l
o
0.75 setlinewidth
[ 0.00 3.00 2.25 3.00] 0 setdash
np
87.88 155.10 m
35.74 0 l
o
np
87.88 137.23 m
35.74 0 l
o
0 0 1 rgb
0.75 setlinewidth
[ 4.50 3.00] 0 setdash
np
87.88 119.35 m
35.74 0 l
o
0 setgray
0.75 setlinewidth
[] 0 setdash
np
102.69 208.74 m
6.11 0 l
o
np
105.75 205.68 m
0 6.11 l
o
1 0 0 rgb
np
102.69 190.86 m
6.11 0 l
o
np
105.75 187.80 m
0 6.11 l
o
0 0.8039 0 rgb
np
102.69 172.98 m
6.11 0 l
o
np
105.75 169.93 m
0 6.11 l
o
np
102.69 155.10 m
6.11 0 l
o
np
105.75 152.05 m
0 6.11 l
o
105.75 137.23 2.16 c p1
0 0 1 rgb
np
102.69 119.35 m
6.11 0 l
o
np
105.75 116.29 m
0 6.11 l
o
/Font1 findfont 10 s
0 setgray
141.49 205.15 (T) 0 ta
-1.200 (odos) tb gr
141.49 187.27 (Medulob) 0 ta
-0.200 (lastoma) tb gr
141.49 169.39 (Glioma) 0 0 t
141.49 151.51 (GA) 0 ta
-0.300 (G) tb gr
141.49 133.64 (GBG) 0 0 t
141.49 115.76 (Ependimoma) 0 0 t
ep
%%Trailer
%%Pages: 1
%%EOF
