%!PS-Adobe-3.0
%%DocumentNeededResources: font Helvetica
%%+ font Helvetica-Bold
%%+ font Helvetica-Oblique
%%+ font Helvetica-BoldOblique
%%+ font Symbol
%%DocumentMedia: a4 595 841 0 () ()
%%Title: R Graphics Output
%%Creator: R Software
%%Pages: (atend)
%%Orientation: Landscape
%%BoundingBox: 18 18 577 824
%%EndComments
%%BeginProlog
/bp  { gs 595.00 0 translate 90 rotate gs } def
% begin .ps.prolog
/gs  { gsave } def
/gr  { grestore } def
/ep  { showpage gr gr } def
/m   { moveto } def
/l  { rlineto } def
/np  { newpath } def
/cp  { closepath } def
/f   { fill } def
/o   { stroke } def
/c   { newpath 0 360 arc } def
/r   { 4 2 roll moveto 1 copy 3 -1 roll exch 0 exch rlineto 0 rlineto -1 mul 0 exch rlineto closepath } def
/p1  { stroke } def
/p2  { gsave bg fill grestore newpath } def
/p3  { gsave bg fill grestore stroke } def
/p6  { gsave bg eofill grestore newpath } def
/p7  { gsave bg eofill grestore stroke } def
/t   { 5 -2 roll moveto gsave rotate
       1 index stringwidth pop
       mul neg 0 rmoveto show grestore } def
/ta  { 4 -2 roll moveto gsave rotate show } def
/tb  { 2 -1 roll 0 rmoveto show } def
/cl  { grestore gsave newpath 3 index 3 index moveto 1 index
       4 -1 roll lineto  exch 1 index lineto lineto
       closepath clip newpath } def
/rgb { setrgbcolor } def
/s   { scalefont setfont } def
% end   .ps.prolog
% begin encoding
/WinAnsiEncoding [
 /.notdef /.notdef /.notdef /.notdef /.notdef /.notdef /.notdef /.notdef
 /.notdef /.notdef /.notdef /.notdef /.notdef /.notdef /.notdef /.notdef
 /.notdef /.notdef /.notdef /.notdef /.notdef /.notdef /.notdef /.notdef
 /.notdef /.notdef /.notdef /.notdef /.notdef /.notdef /.notdef /.notdef
 /space /exclam /quotedbl /numbersign /dollar /percent /ampersand /quoteright
 /parenleft /parenright /asterisk /plus /comma /minus /period /slash
 /zero /one /two /three /four /five /six /seven
 /eight /nine /colon /semicolon /less /equal /greater /question
 /at /A /B /C /D /E /F /G
 /H /I /J /K /L /M /N /O
 /P /Q /R /S /T /U /V /W
 /X /Y /Z /bracketleft /backslash /bracketright /asciicircum /underscore
 /grave /a /b /c /d /e /f /g
 /h /i /j /k /l /m /n /o
 /p /q /r /s /t /u /v /w
 /x /y /z /braceleft /bar /braceright /asciitilde /.notdef
 /Euro /.notdef /quotesinglbase /florin /quotedblbase /ellipsis /dagger /daggerdbl
 /circumflex /perthousand /Scaron /guilsinglleft /OE /.notdef /Zcaron /.notdef
 /.notdef /quoteleft /quoteright /quotedblleft /quotedblright /bullet /endash /emdash
 /tilde /trademark /scaron /guilsinglright /oe /.notdef /zcaron /Ydieresis
 /space /exclamdown /cent /sterling /currency /yen /brokenbar /section
 /dieresis /copyright /ordfeminine /guillemotleft /logicalnot /hyphen /registered /macron
 /degree /plusminus /twosuperior /threesuperior /acute /mu /paragraph /periodcentered
 /cedilla /onesuperior /ordmasculine /guillemotright /onequarter /onehalf /threequarters /questiondown
 /Agrave /Aacute /Acircumflex /Atilde /Adieresis /Aring /AE /Ccedilla
 /Egrave /Eacute /Ecircumflex /Edieresis /Igrave /Iacute /Icircumflex /Idieresis
 /Eth /Ntilde /Ograve /Oacute /Ocircumflex /Otilde /Odieresis /multiply
 /Oslash /Ugrave /Uacute /Ucircumflex /Udieresis /Yacute /Thorn /germandbls
 /agrave /aacute /acircumflex /atilde /adieresis /aring /ae /ccedilla
 /egrave /eacute /ecircumflex /edieresis /igrave /iacute /icircumflex /idieresis
 /eth /ntilde /ograve /oacute /ocircumflex /otilde /odieresis /divide
 /oslash /ugrave /uacute /ucircumflex /udieresis /yacute /thorn /ydieresis
]
 def
% end encoding
%%IncludeResource: font Helvetica
/Helvetica findfont
dup length dict begin
  {1 index /FID ne {def} {pop pop} ifelse} forall
  /Encoding WinAnsiEncoding def
  currentdict
  end
/Font1 exch definefont pop
%%IncludeResource: font Helvetica-Bold
/Helvetica-Bold findfont
dup length dict begin
  {1 index /FID ne {def} {pop pop} ifelse} forall
  /Encoding WinAnsiEncoding def
  currentdict
  end
/Font2 exch definefont pop
%%IncludeResource: font Helvetica-Oblique
/Helvetica-Oblique findfont
dup length dict begin
  {1 index /FID ne {def} {pop pop} ifelse} forall
  /Encoding WinAnsiEncoding def
  currentdict
  end
/Font3 exch definefont pop
%%IncludeResource: font Helvetica-BoldOblique
/Helvetica-BoldOblique findfont
dup length dict begin
  {1 index /FID ne {def} {pop pop} ifelse} forall
  /Encoding WinAnsiEncoding def
  currentdict
  end
/Font4 exch definefont pop
%%IncludeResource: font Symbol
/Symbol findfont
dup length dict begin
  {1 index /FID ne {def} {pop pop} ifelse} forall
  currentdict
  end
/Font5 exch definefont pop
%%EndProlog
%%Page: 1 1
bp
77.04 91.44 793.65 518.24 cl
77.04 91.44 793.65 518.24 cl
/bg { 1 setgray } def
0 setgray
0.75 setlinewidth
[] 0 setdash
1 setlinecap
1 setlinejoin
10.00 setmiterlimit
np
 593.42 304.84 m
-0.08 5.03 l
-0.24 5.04 l
-0.40 5.02 l
-0.57 5.00 l
-0.72 4.99 l
-0.87 4.96 l
-1.04 4.93 l
-1.19 4.89 l
-1.35 4.86 l
-1.50 4.80 l
-1.66 4.76 l
-1.80 4.71 l
-1.96 4.64 l
-2.10 4.58 l
-2.24 4.51 l
-2.39 4.43 l
-2.53 4.36 l
-2.66 4.27 l
-2.81 4.19 l
-2.93 4.09 l
-3.06 4.00 l
-3.19 3.90 l
-3.31 3.80 l
-3.43 3.69 l
-3.54 3.58 l
-3.66 3.46 l
-3.77 3.35 l
-3.87 3.22 l
-3.97 3.10 l
-4.07 2.97 l
-4.16 2.84 l
-4.25 2.71 l
-4.33 2.56 l
-4.41 2.43 l
-4.49 2.29 l
-4.56 2.14 l
-4.62 2.00 l
-4.69 1.85 l
-4.74 1.70 l
-4.80 1.54 l
-4.84 1.40 l
-4.88 1.23 l
-4.92 1.09 l
-4.95 0.92 l
-4.98 0.77 l
-5.00 0.60 l
-5.02 0.45 l
-5.03 0.29 l
-5.03 0.12 l
-5.04 -0.03 l
-5.04 -0.19 l
-5.02 -0.36 l
-5.01 -0.51 l
-4.99 -0.68 l
-4.97 -0.83 l
-4.94 -0.99 l
-4.90 -1.15 l
-4.87 -1.30 l
-4.82 -1.46 l
-4.78 -1.61 l
-4.71 -1.76 l
-4.67 -1.91 l
-4.59 -2.06 l
-4.53 -2.20 l
-4.46 -2.35 l
-4.38 -2.49 l
-4.30 -2.62 l
-4.21 -2.77 l
-4.12 -2.89 l
-4.03 -3.03 l
-3.93 -3.15 l
-3.83 -3.27 l
-3.72 -3.40 l
-3.61 -3.51 l
-3.50 -3.63 l
-3.38 -3.73 l
-3.26 -3.84 l
-3.13 -3.94 l
-3.01 -4.04 l
-2.88 -4.14 l
-2.74 -4.22 l
-2.61 -4.31 l
-2.47 -4.39 l
-2.33 -4.47 l
-2.18 -4.54 l
-2.04 -4.60 l
-1.90 -4.67 l
-1.74 -4.73 l
-1.59 -4.78 l
-1.44 -4.83 l
-1.28 -4.87 l
-1.12 -4.91 l
-0.97 -4.94 l
155.57 -27.96 l
cp p3
np
449.38 462.29 m
0.70 7.87 l
o
18.00 18.00 823.89 577.28 cl
/Font1 findfont 14 s
0 setgray
450.78 473.24 (47.2%) 0 0 t
77.04 91.44 793.65 518.24 cl
/bg { 0.8980 setgray } def
0 setgray
0.75 setlinewidth
[] 0 setdash
1 setlinecap
1 setlinejoin
10.00 setmiterlimit
np
 279.77 332.80 m
-0.83 -5.09 l
-0.67 -5.11 l
-0.49 -5.13 l
-0.33 -5.14 l
-0.16 -5.15 l
0.01 -5.15 l
0.17 -5.15 l
0.35 -5.14 l
0.51 -5.13 l
0.67 -5.11 l
0.85 -5.08 l
1.01 -5.06 l
1.17 -5.02 l
1.34 -4.97 l
1.49 -4.93 l
1.66 -4.88 l
1.82 -4.83 l
1.97 -4.76 l
2.13 -4.69 l
2.27 -4.62 l
2.43 -4.55 l
2.58 -4.46 l
2.72 -4.38 l
2.85 -4.29 l
3.00 -4.19 l
3.14 -4.09 l
3.26 -3.99 l
3.39 -3.88 l
3.52 -3.76 l
3.64 -3.65 l
3.75 -3.53 l
3.87 -3.40 l
3.98 -3.28 l
4.08 -3.15 l
4.19 -3.01 l
4.27 -2.87 l
4.37 -2.73 l
4.46 -2.59 l
4.54 -2.44 l
4.61 -2.29 l
67.98 142.71 l
cp p3
np
294.71 232.66 m
-7.03 -3.61 l
o
18.00 18.00 823.89 577.28 cl
/Font1 findfont 14 s
0 setgray
280.65 220.65 (20.8%) 1 0 t
77.04 91.44 793.65 518.24 cl
/bg { 0.7020 setgray } def
0 setgray
0.75 setlinewidth
[] 0 setdash
1 setlinecap
1 setlinejoin
10.00 setmiterlimit
np
 367.36 162.13 m
4.77 -2.17 l
4.83 -2.02 l
4.90 -1.85 l
4.95 -1.69 l
5.01 -1.52 l
5.06 -1.36 l
5.10 -1.19 l
5.13 -1.02 l
5.17 -0.85 l
5.19 -0.68 l
5.21 -0.51 l
5.23 -0.33 l
5.23 -0.16 l
5.24 0.01 l
5.23 0.19 l
5.22 0.36 l
5.21 0.53 l
5.19 0.71 l
5.16 0.88 l
5.13 1.04 l
5.09 1.22 l
5.05 1.39 l
5.00 1.55 l
4.95 1.71 l
4.89 1.88 l
4.82 2.04 l
4.75 2.20 l
4.68 2.35 l
4.59 2.51 l
4.52 2.66 l
4.42 2.81 l
4.32 2.95 l
4.22 3.09 l
4.12 3.23 l
-99.60 122.75 l
cp p3
np
454.04 147.87 m
0.94 -7.84 l
o
18.00 18.00 823.89 577.28 cl
/Font1 findfont 14 s
0 setgray
455.91 127.39 (17.9%) 0 0 t
77.04 91.44 793.65 518.24 cl
/bg { 0.4980 setgray } def
0 setgray
0.75 setlinewidth
[] 0 setdash
1 setlinecap
1 setlinejoin
10.00 setmiterlimit
np
 534.94 182.09 m
3.99 3.35 l
3.88 3.47 l
3.76 3.60 l
3.63 3.73 l
3.52 3.84 l
3.38 3.95 l
3.26 4.06 l
3.11 4.17 l
2.98 4.27 l
2.84 4.37 l
2.69 4.45 l
2.54 4.54 l
2.39 4.63 l
2.24 4.70 l
2.08 4.77 l
1.93 4.83 l
1.76 4.90 l
1.61 4.95 l
1.43 5.00 l
1.28 5.05 l
1.10 5.09 l
0.94 5.12 l
0.77 5.15 l
0.60 5.17 l
0.42 5.18 l
0.26 5.20 l
0.09 5.21 l
-158.08 0 l
cp p3
np
578.05 236.86 m
7.14 -3.40 l
o
18.00 18.00 823.89 577.28 cl
/Font1 findfont 14 s
0 setgray
592.32 225.27 (14.2%) 0 0 t
77.04 91.44 793.65 518.24 cl
/bg { 1 setgray } def
0 setgray
0.75 setlinewidth
[] 0 setdash
1 setlinecap
1 setlinejoin
10.00 setmiterlimit
68.33 444.63 14.63 -12.19 r p3
/bg { 0.8980 setgray } def
68.33 420.25 14.63 -12.19 r p3
/bg { 0.7020 setgray } def
68.33 395.87 14.63 -12.19 r p3
/bg { 0.4980 setgray } def
68.33 371.49 14.63 -12.19 r p3
/Font1 findfont 14 s
101.24 433.51 (F) 0 ta
-0.420 (ossa P) tb
-0.700 (oster) tb
0.210 (ior \(n=50\)) tb gr
101.24 409.13 (T) 0 ta
-1.680 (ronco Cerebr) tb
-0.140 (al \(n=21\)) tb gr
101.24 384.75 (Supr) 0 ta
-0.140 (atentor) tb
0.210 (ial \(n=13\)) tb gr
101.24 360.37 (Diencef) 0 ta
-0.420 (alo \(n=12\)) tb gr
ep
%%Trailer
%%Pages: 1
%%EOF
